internal_1	44.0
internal_3	4.0
RRib7Met_A24D-0021_CRUK_PC_0021_M3	8.0
internal_2	1.0
RDiaphragmaticMet_A24C-0021_CRUK_PC_0021_M2	4.0
XiphoidMet_A24E-0021_CRUK_PC_0021_M4	1.0
RAxillaryLNMet_A24A-0021_CRUK_PC_0021_M1	30.0
