	ProstateCA_A29C-0017_CRUK_PC_0017_T1	RSuperficialInguinalLNMetA1_A29A-0017_CRUK_PC_0017_M1	diploid
ProstateCA_A29C-0017_CRUK_PC_0017_T1	0.0	139.0	157.0
RSuperficialInguinalLNMetA1_A29A-0017_CRUK_PC_0017_M1	139.0	0.0	140.0
diploid	157.0	140.0	0.0
