sample_id	chrom	start	end	allele	type	cn_child
internal_2	chr1	160105367	162294282	cn_a	gain	2
internal_2	chr1	164004969	166201152	cn_a	gain	2
internal_2	chr1	167376590	173971933	cn_a	gain	2
internal_2	chr1	176477105	249208772	cn_a	gain	2
internal_2	chr1	176477105	249208772	cn_a	gain	3
internal_2	chr2	103552308	104578923	cn_a	loh	0
internal_2	chr2	134333101	149892609	cn_a	loh	0
internal_2	chr2	152583047	155850324	cn_a	loh	0
internal_2	chr3	82810812	84528051	cn_a	loh	0
internal_2	chr6	82992460	98756148	cn_a	loh	0
internal_2	chr6	126619211	130119416	cn_a	loh	0
internal_2	chr7	80500	159122935	cn_a	gain	2
internal_2	chr7	32207216	38961962	cn_a	loh	0
internal_2	chr11	65961498	134944751	cn_a	gain	2
internal_2	chr13	40707448	77096917	cn_a	loh	0
internal_2	chr14	20502120	107289436	cn_a	gain	2
internal_2	chr4	26652781	30165733	cn_b	loh	0
internal_2	chr4	93528578	95482820	cn_b	loh	0
internal_2	chr4	174301717	179157753	cn_b	loh	0
internal_2	chr4	183220371	184927422	cn_b	loh	0
internal_2	chr7	51132378	55014384	cn_b	loh	0
internal_2	chr8	53443593	75566127	cn_b	gain	3
internal_2	chr8	53443593	146267088	cn_b	gain	2
internal_2	chr8	94566584	146267088	cn_b	gain	3
internal_2	chr8	94566584	146267088	cn_b	gain	4
internal_2	chr10	110359549	111684525	cn_b	loh	0
internal_2	chr10	118605505	120986693	cn_b	loh	0
internal_2	chr11	54795357	56058197	cn_b	loh	0
internal_2	chr11	97075075	133527686	cn_b	loh	0
internal_2	chr12	10018338	18238005	cn_b	loh	0
internal_2	chr12	108600475	133801770	cn_b	gain	2
internal_2	chr12	129652325	131270087	cn_b	loh	0
internal_2	chr13	79595433	82890988	cn_b	loh	0
internal_2	chr13	82892302	112703703	cn_b	gain	2
internal_2	chr17	27881	21294733	cn_b	loh	0
internal_3	chr1	144896319	176476203	cn_a	gain	2
internal_3	chr2	248037	8158681	cn_a	gain	2
internal_3	chr3	98257597	197846280	cn_a	gain	2
internal_3	chr3	98257597	197846280	cn_a	gain	3
internal_3	chr6	202452	82986208	cn_a	gain	2
internal_3	chr9	138509060	141066287	cn_a	gain	2
internal_3	chr11	21456065	65843778	cn_a	gain	2
internal_3	chr13	79595433	114957688	cn_a	gain	2
internal_3	chr8	35580299	83196116	cn_b	gain	2
internal_3	chr11	894874	97052893	cn_b	loh	0
internal_3	chr12	63674014	107873490	cn_b	gain	2
internal_3	chr13	84368785	112703703	cn_b	loss	1
internal_3	chr16	61455253	85626107	cn_b	loh	0
RRibNodularMet_A21F-0096_CRUK_PC_0096_M5	chr0	27881	249208772	both	wgd	0
RRibNodularMet_A21F-0096_CRUK_PC_0096_M5	chr1	160105367	162294282	cn_a	gain	4
RRibNodularMet_A21F-0096_CRUK_PC_0096_M5	chr1	164004969	166201152	cn_a	gain	4
RRibNodularMet_A21F-0096_CRUK_PC_0096_M5	chr1	167376590	173971933	cn_a	gain	4
RRibNodularMet_A21F-0096_CRUK_PC_0096_M5	chr2	248037	79447017	cn_a	loss	1
RRibNodularMet_A21F-0096_CRUK_PC_0096_M5	chr2	85897768	87130299	cn_a	loh	0
RRibNodularMet_A21F-0096_CRUK_PC_0096_M5	chr2	95343691	96798510	cn_a	loss	1
RRibNodularMet_A21F-0096_CRUK_PC_0096_M5	chr2	125875097	133905985	cn_a	loh	0
RRibNodularMet_A21F-0096_CRUK_PC_0096_M5	chr2	149894654	233570204	cn_a	loss	1
RRibNodularMet_A21F-0096_CRUK_PC_0096_M5	chr2	233573453	242933260	cn_a	loh	0
RRibNodularMet_A21F-0096_CRUK_PC_0096_M5	chr3	62614	82805554	cn_a	loss	1
RRibNodularMet_A21F-0096_CRUK_PC_0096_M5	chr4	183220371	190790246	cn_a	gain	3
RRibNodularMet_A21F-0096_CRUK_PC_0096_M5	chr5	84321443	106123252	cn_a	loh	0
RRibNodularMet_A21F-0096_CRUK_PC_0096_M5	chr5	106125352	119873019	cn_a	loss	1
RRibNodularMet_A21F-0096_CRUK_PC_0096_M5	chr5	143339625	159629241	cn_a	loss	1
RRibNodularMet_A21F-0096_CRUK_PC_0096_M5	chr5	159633973	180645655	cn_a	loh	0
RRibNodularMet_A21F-0096_CRUK_PC_0096_M5	chr6	55805211	77815912	cn_a	gain	3
RRibNodularMet_A21F-0096_CRUK_PC_0096_M5	chr6	118366945	126611593	cn_a	loss	1
RRibNodularMet_A21F-0096_CRUK_PC_0096_M5	chr6	130192689	170904973	cn_a	loh	0
RRibNodularMet_A21F-0096_CRUK_PC_0096_M5	chr7	80500	159122935	cn_a	gain	4
RRibNodularMet_A21F-0096_CRUK_PC_0096_M5	chr8	202842	103769678	cn_a	loss	1
RRibNodularMet_A21F-0096_CRUK_PC_0096_M5	chr10	108046865	111684525	cn_a	loss	1
RRibNodularMet_A21F-0096_CRUK_PC_0096_M5	chr11	2869188	65843778	cn_a	loss	1
RRibNodularMet_A21F-0096_CRUK_PC_0096_M5	chr15	95509890	98055645	cn_a	loh	0
RRibNodularMet_A21F-0096_CRUK_PC_0096_M5	chr15	98334663	102385500	cn_a	loss	1
RRibNodularMet_A21F-0096_CRUK_PC_0096_M5	chr16	87954852	89587776	cn_a	loss	1
RRibNodularMet_A21F-0096_CRUK_PC_0096_M5	chr17	27881	21294733	cn_a	loss	1
RRibNodularMet_A21F-0096_CRUK_PC_0096_M5	chr1	798959	27027651	cn_b	loss	1
RRibNodularMet_A21F-0096_CRUK_PC_0096_M5	chr1	32676013	152304835	cn_b	loss	1
RRibNodularMet_A21F-0096_CRUK_PC_0096_M5	chr1	162296956	163967394	cn_b	loss	1
RRibNodularMet_A21F-0096_CRUK_PC_0096_M5	chr1	166204973	167361963	cn_b	loss	1
RRibNodularMet_A21F-0096_CRUK_PC_0096_M5	chr2	80303474	85178007	cn_b	gain	3
RRibNodularMet_A21F-0096_CRUK_PC_0096_M5	chr2	80303474	85178007	cn_b	gain	4
RRibNodularMet_A21F-0096_CRUK_PC_0096_M5	chr2	80303474	85178007	cn_b	gain	5
RRibNodularMet_A21F-0096_CRUK_PC_0096_M5	chr2	82075234	83559630	cn_b	gain	6
RRibNodularMet_A21F-0096_CRUK_PC_0096_M5	chr2	82075234	83559630	cn_b	gain	7
RRibNodularMet_A21F-0096_CRUK_PC_0096_M5	chr2	82075234	83559630	cn_b	gain	8
RRibNodularMet_A21F-0096_CRUK_PC_0096_M5	chr2	132455133	133905985	cn_b	loss	1
RRibNodularMet_A21F-0096_CRUK_PC_0096_M5	chr2	139347957	143470441	cn_b	loss	1
RRibNodularMet_A21F-0096_CRUK_PC_0096_M5	chr2	233573453	242933260	cn_b	loss	1
RRibNodularMet_A21F-0096_CRUK_PC_0096_M5	chr3	82810812	97267755	cn_b	loss	1
RRibNodularMet_A21F-0096_CRUK_PC_0096_M5	chr4	94436	42779379	cn_b	loss	1
RRibNodularMet_A21F-0096_CRUK_PC_0096_M5	chr4	46100852	143746191	cn_b	loss	1
RRibNodularMet_A21F-0096_CRUK_PC_0096_M5	chr5	859982	102054483	cn_b	loss	1
RRibNodularMet_A21F-0096_CRUK_PC_0096_M5	chr5	119876209	143331810	cn_b	loss	1
RRibNodularMet_A21F-0096_CRUK_PC_0096_M5	chr5	161508728	162552835	cn_b	loss	1
RRibNodularMet_A21F-0096_CRUK_PC_0096_M5	chr6	202452	170904973	cn_b	loss	1
RRibNodularMet_A21F-0096_CRUK_PC_0096_M5	chr7	47905849	57999512	cn_b	loss	1
RRibNodularMet_A21F-0096_CRUK_PC_0096_M5	chr7	108795622	159122935	cn_b	loss	1
RRibNodularMet_A21F-0096_CRUK_PC_0096_M5	chr8	202842	36792421	cn_b	loh	0
RRibNodularMet_A21F-0096_CRUK_PC_0096_M5	chr8	46883812	81527749	cn_b	gain	3
RRibNodularMet_A21F-0096_CRUK_PC_0096_M5	chr8	46883812	81527749	cn_b	gain	4
RRibNodularMet_A21F-0096_CRUK_PC_0096_M5	chr8	53443593	75566127	cn_b	gain	8
RRibNodularMet_A21F-0096_CRUK_PC_0096_M5	chr8	53443593	81527749	cn_b	gain	7
RRibNodularMet_A21F-0096_CRUK_PC_0096_M5	chr8	94566584	146267088	cn_b	gain	6
RRibNodularMet_A21F-0096_CRUK_PC_0096_M5	chr8	94566584	146267088	cn_b	gain	7
RRibNodularMet_A21F-0096_CRUK_PC_0096_M5	chr8	94566584	146267088	cn_b	gain	8
RRibNodularMet_A21F-0096_CRUK_PC_0096_M5	chr9	26761678	38773520	cn_b	loss	1
RRibNodularMet_A21F-0096_CRUK_PC_0096_M5	chr9	120396978	141066287	cn_b	loss	1
RRibNodularMet_A21F-0096_CRUK_PC_0096_M5	chr10	45062771	49831769	cn_b	loss	1
RRibNodularMet_A21F-0096_CRUK_PC_0096_M5	chr10	52828115	110005142	cn_b	loss	1
RRibNodularMet_A21F-0096_CRUK_PC_0096_M5	chr10	121052908	134876496	cn_b	loss	1
RRibNodularMet_A21F-0096_CRUK_PC_0096_M5	chr11	894874	2082083	cn_b	loss	1
RRibNodularMet_A21F-0096_CRUK_PC_0096_M5	chr13	32820039	41963968	cn_b	gain	3
RRibNodularMet_A21F-0096_CRUK_PC_0096_M5	chr13	32820039	41963968	cn_b	gain	4
RRibNodularMet_A21F-0096_CRUK_PC_0096_M5	chr13	40707448	41963968	cn_b	gain	5
RRibNodularMet_A21F-0096_CRUK_PC_0096_M5	chr13	42164492	114957688	cn_b	loss	1
RRibNodularMet_A21F-0096_CRUK_PC_0096_M5	chr14	20502120	107289436	cn_b	loss	1
RRibNodularMet_A21F-0096_CRUK_PC_0096_M5	chr15	22749649	98055645	cn_b	loss	1
RRibNodularMet_A21F-0096_CRUK_PC_0096_M5	chr16	61455253	89587776	cn_b	loss	1
RRibNodularMet_A21F-0096_CRUK_PC_0096_M5	chr17	25800562	79903958	cn_b	loss	1
RRibNodularMet_A21F-0096_CRUK_PC_0096_M5	chr17	27722576	29995228	cn_b	loh	0
RRibNodularMet_A21F-0096_CRUK_PC_0096_M5	chr18	129661	77891346	cn_b	loss	1
RRibNodularMet_A21F-0096_CRUK_PC_0096_M5	chr19	2954739	24397074	cn_b	loss	1
RRibNodularMet_A21F-0096_CRUK_PC_0096_M5	chr19	41393036	59095126	cn_b	loss	1
RRibNodularMet_A21F-0096_CRUK_PC_0096_M5	chr21	43743039	48072628	cn_b	loss	1
RRibNodularMet_A21F-0096_CRUK_PC_0096_M5	chr22	17902023	49998118	cn_b	loss	1
internal_4	chr9	71031528	138506024	cn_a	gain	2
internal_4	chr11	894874	20230146	cn_a	gain	2
internal_4	chr13	19500453	79590497	cn_a	gain	2
internal_4	chr8	53443593	75566127	cn_b	loss	3
internal_4	chr8	94566584	146267088	cn_b	loss	3
internal_4	chr11	133531628	134944751	cn_b	loh	0
LIliacCrestSoftMet_A21J-0096_CRUK_PC_0096_M9	chr2	125875097	133905985	cn_a	loh	0
LIliacCrestSoftMet_A21J-0096_CRUK_PC_0096_M9	chr3	62614	62212067	cn_a	gain	2
LIliacCrestSoftMet_A21J-0096_CRUK_PC_0096_M9	chr3	78170247	82805554	cn_a	loh	0
LIliacCrestSoftMet_A21J-0096_CRUK_PC_0096_M9	chr5	84321443	106123252	cn_a	loh	0
LIliacCrestSoftMet_A21J-0096_CRUK_PC_0096_M9	chr5	159633973	162552835	cn_a	loh	0
LIliacCrestSoftMet_A21J-0096_CRUK_PC_0096_M9	chr8	115612762	146267088	cn_a	loh	0
LIliacCrestSoftMet_A21J-0096_CRUK_PC_0096_M9	chr9	123419178	124499391	cn_a	gain	2
LIliacCrestSoftMet_A21J-0096_CRUK_PC_0096_M9	chr15	95509890	98055645	cn_a	loh	0
LIliacCrestSoftMet_A21J-0096_CRUK_PC_0096_M9	chr17	27881	4932841	cn_a	gain	2
LIliacCrestSoftMet_A21J-0096_CRUK_PC_0096_M9	chr1	31089050	32637419	cn_b	loh	0
LIliacCrestSoftMet_A21J-0096_CRUK_PC_0096_M9	chr4	124844935	125946668	cn_b	loh	0
LIliacCrestSoftMet_A21J-0096_CRUK_PC_0096_M9	chr8	13074408	34656690	cn_b	loh	0
LIliacCrestSoftMet_A21J-0096_CRUK_PC_0096_M9	chr16	87954852	89587776	cn_b	loh	0
internal_8	chr5	84321443	106123252	cn_a	loh	0
internal_8	chr6	152894562	170904973	cn_a	loh	0
internal_8	chr9	261190	38773520	cn_a	gain	2
internal_8	chr9	261190	38773520	cn_a	gain	3
internal_8	chr9	8094833	9210472	cn_a	gain	4
internal_8	chr9	8094833	9210472	cn_a	gain	5
internal_8	chr9	8094833	9210472	cn_a	gain	6
internal_8	chr15	95509890	98055645	cn_a	loh	0
LClavicleLNMet_A21I-0096_CRUK_PC_0096_M8	chr2	248037	8158681	cn_a	loss	1
LClavicleLNMet_A21I-0096_CRUK_PC_0096_M8	chr2	125875097	133905985	cn_a	loh	0
LClavicleLNMet_A21I-0096_CRUK_PC_0096_M8	chr3	98257597	197846280	cn_a	loss	2
LClavicleLNMet_A21I-0096_CRUK_PC_0096_M8	chr3	181305996	197846280	cn_a	loss	1
LClavicleLNMet_A21I-0096_CRUK_PC_0096_M8	chr5	49441623	102054483	cn_a	loh	0
LClavicleLNMet_A21I-0096_CRUK_PC_0096_M8	chr5	106125352	162552835	cn_a	loh	0
LClavicleLNMet_A21I-0096_CRUK_PC_0096_M8	chr6	79642581	82986208	cn_a	gain	3
LClavicleLNMet_A21I-0096_CRUK_PC_0096_M8	chr8	140670448	142255818	cn_a	loh	0
LClavicleLNMet_A21I-0096_CRUK_PC_0096_M8	chr11	22767636	25385677	cn_a	loss	1
LClavicleLNMet_A21I-0096_CRUK_PC_0096_M8	chr11	84287273	85917139	cn_a	gain	3
LClavicleLNMet_A21I-0096_CRUK_PC_0096_M8	chr13	82892302	114957688	cn_a	gain	3
LClavicleLNMet_A21I-0096_CRUK_PC_0096_M8	chr15	98334663	102385500	cn_a	loh	0
LClavicleLNMet_A21I-0096_CRUK_PC_0096_M8	chr1	31089050	32637419	cn_b	loh	0
LClavicleLNMet_A21I-0096_CRUK_PC_0096_M8	chr4	30296815	65878200	cn_b	loh	0
LClavicleLNMet_A21I-0096_CRUK_PC_0096_M8	chr4	124844935	132042689	cn_b	loh	0
LClavicleLNMet_A21I-0096_CRUK_PC_0096_M8	chr5	104934246	106123252	cn_b	loh	0
LClavicleLNMet_A21I-0096_CRUK_PC_0096_M8	chr7	111675156	112766082	cn_b	gain	3
LClavicleLNMet_A21I-0096_CRUK_PC_0096_M8	chr7	111675156	159122935	cn_b	gain	2
LClavicleLNMet_A21I-0096_CRUK_PC_0096_M8	chr12	40827479	63673968	cn_b	loh	0
LClavicleLNMet_A21I-0096_CRUK_PC_0096_M8	chr12	63674014	107873490	cn_b	gain	3
LClavicleLNMet_A21I-0096_CRUK_PC_0096_M8	chr15	22749649	85137187	cn_b	loh	0
LClavicleLNMet_A21I-0096_CRUK_PC_0096_M8	chr15	95509890	98055645	cn_b	loh	0
LClavicleLNMet_A21I-0096_CRUK_PC_0096_M8	chr16	87954852	89587776	cn_b	loh	0
LClavicleLNMet_A21I-0096_CRUK_PC_0096_M8	chr17	25800562	79903958	cn_b	loh	0
LClavicleLNMet_A21I-0096_CRUK_PC_0096_M8	chr19	289657	59095126	cn_b	loh	0
LRib5MassMet_A21A-0096_CRUK_PC_0096_M1	chr2	9525609	11037954	cn_a	loh	0
LRib5MassMet_A21A-0096_CRUK_PC_0096_M1	chr5	159633973	162552835	cn_a	loh	0
LRib5MassMet_A21A-0096_CRUK_PC_0096_M1	chr6	104360874	110916217	cn_a	loh	0
LRib5MassMet_A21A-0096_CRUK_PC_0096_M1	chr8	103877434	146267088	cn_a	loh	0
LRib5MassMet_A21A-0096_CRUK_PC_0096_M1	chr9	261190	38773520	cn_a	gain	4
LRib5MassMet_A21A-0096_CRUK_PC_0096_M1	chr9	261190	38773520	cn_a	gain	5
LRib5MassMet_A21A-0096_CRUK_PC_0096_M1	chr10	62869980	85376354	cn_a	gain	2
LRib5MassMet_A21A-0096_CRUK_PC_0096_M1	chr10	72680854	85376354	cn_a	gain	3
LRib5MassMet_A21A-0096_CRUK_PC_0096_M1	chr15	98334663	102385500	cn_a	loh	0
LRib5MassMet_A21A-0096_CRUK_PC_0096_M1	chr2	125875097	133905985	cn_b	loh	0
LRib5MassMet_A21A-0096_CRUK_PC_0096_M1	chr4	184993376	187468946	cn_b	loh	0
LRib5MassMet_A21A-0096_CRUK_PC_0096_M1	chr9	261190	28215694	cn_b	loh	0
LRib5MassMet_A21A-0096_CRUK_PC_0096_M1	chr9	31745109	38773520	cn_b	loh	0
LRib5MassMet_A21A-0096_CRUK_PC_0096_M1	chr10	52828115	60790128	cn_b	loh	0
LRib5MassMet_A21A-0096_CRUK_PC_0096_M1	chr10	75696749	77586857	cn_b	loh	0
LRib5MassMet_A21A-0096_CRUK_PC_0096_M1	chr12	38201068	40822096	cn_b	loh	0
LRib5MassMet_A21A-0096_CRUK_PC_0096_M1	chr13	88311721	94652322	cn_b	loh	0
LRib5MassMet_A21A-0096_CRUK_PC_0096_M1	chr13	106542688	108111325	cn_b	loh	0
LRib5MassMet_A21A-0096_CRUK_PC_0096_M1	chr13	110953848	114957688	cn_b	loh	0
LRib5MassMet_A21A-0096_CRUK_PC_0096_M1	chr16	87954852	89587776	cn_b	loh	0
LRib5MassMet_A21A-0096_CRUK_PC_0096_M1	chr19	289657	24397074	cn_b	loh	0
internal_7	chr2	125875097	133905985	cn_a	loh	0
LAdrenalMet_A21D-0096_CRUK_PC_0096_M3	chr5	159633973	162552835	cn_a	loh	0
LAdrenalMet_A21D-0096_CRUK_PC_0096_M3	chr6	104360874	110916217	cn_a	loh	0
LAdrenalMet_A21D-0096_CRUK_PC_0096_M3	chr9	8094833	9210472	cn_a	loss	5
LAdrenalMet_A21D-0096_CRUK_PC_0096_M3	chr16	87954852	89587776	cn_a	loh	0
LAdrenalMet_A21D-0096_CRUK_PC_0096_M3	chr17	27881	6610922	cn_a	gain	2
LAdrenalMet_A21D-0096_CRUK_PC_0096_M3	chr17	12048682	13671525	cn_a	gain	2
LAdrenalMet_A21D-0096_CRUK_PC_0096_M3	chr17	25800562	29995228	cn_a	gain	2
LAdrenalMet_A21D-0096_CRUK_PC_0096_M3	chr17	35039992	41363082	cn_a	gain	2
LAdrenalMet_A21D-0096_CRUK_PC_0096_M3	chr17	52006907	54666735	cn_a	gain	2
LAdrenalMet_A21D-0096_CRUK_PC_0096_M3	chr17	57423326	60385936	cn_a	gain	2
LAdrenalMet_A21D-0096_CRUK_PC_0096_M3	chr17	78685626	79903958	cn_a	gain	2
LAdrenalMet_A21D-0096_CRUK_PC_0096_M3	chr1	798959	27027651	cn_b	loh	0
LAdrenalMet_A21D-0096_CRUK_PC_0096_M3	chr1	28664248	32637419	cn_b	loh	0
LAdrenalMet_A21D-0096_CRUK_PC_0096_M3	chr1	118471212	121350213	cn_b	loh	0
LAdrenalMet_A21D-0096_CRUK_PC_0096_M3	chr4	94436	21118054	cn_b	loh	0
LAdrenalMet_A21D-0096_CRUK_PC_0096_M3	chr4	95486094	102581878	cn_b	loh	0
LAdrenalMet_A21D-0096_CRUK_PC_0096_M3	chr4	169269932	172405998	cn_b	loh	0
LAdrenalMet_A21D-0096_CRUK_PC_0096_M3	chr4	184993376	190790246	cn_b	loh	0
LAdrenalMet_A21D-0096_CRUK_PC_0096_M3	chr10	346300	9563326	cn_b	loh	0
LAdrenalMet_A21D-0096_CRUK_PC_0096_M3	chr10	52828115	54696181	cn_b	loh	0
LAdrenalMet_A21D-0096_CRUK_PC_0096_M3	chr10	125958062	128869016	cn_b	loh	0
LAdrenalMet_A21D-0096_CRUK_PC_0096_M3	chr12	207691	34828307	cn_b	loh	0
LAdrenalMet_A21D-0096_CRUK_PC_0096_M3	chr12	40827479	63673968	cn_b	loh	0
LAdrenalMet_A21D-0096_CRUK_PC_0096_M3	chr16	85658	34449293	cn_b	loh	0
LAdrenalMet_A21D-0096_CRUK_PC_0096_M3	chr17	43068628	50814794	cn_b	loh	0
LAdrenalMet_A21D-0096_CRUK_PC_0096_M3	chr17	54668748	57419998	cn_b	loh	0
LAdrenalMet_A21D-0096_CRUK_PC_0096_M3	chr17	74437960	78683460	cn_b	loh	0
LAdrenalMet_A21D-0096_CRUK_PC_0096_M3	chr19	289657	59095126	cn_b	loh	0
LAdrenalMet_A21D-0096_CRUK_PC_0096_M3	chr20	29499001	47082587	cn_b	loh	0
LAdrenalMet_A21D-0096_CRUK_PC_0096_M3	chr22	17902023	49998118	cn_b	loh	0
internal_6	chr2	9525609	11037954	cn_a	loh	0
internal_6	chr2	21667885	22844400	cn_a	loh	0
internal_6	chr2	40534841	43724644	cn_a	loh	0
internal_6	chr2	65553374	79447017	cn_a	loh	0
internal_6	chr3	113974991	150785387	cn_a	loss	2
internal_6	chr3	156268070	161681798	cn_a	loss	2
internal_6	chr9	8094833	9210472	cn_a	gain	7
internal_6	chr14	20502120	107289436	cn_a	loss	1
internal_6	chr7	76755530	82765830	cn_b	loh	0
internal_6	chr7	87876090	91352533	cn_b	loh	0
internal_6	chr16	87954852	89587776	cn_b	loh	0
internal_1	chr5	164844330	180645655	cn_a	loh	0
internal_1	chr1	798959	27027651	cn_b	loh	0
internal_1	chr1	28664248	30543521	cn_b	loh	0
internal_1	chr4	94436	8881738	cn_b	loh	0
internal_1	chr4	21119266	26649361	cn_b	loh	0
internal_1	chr10	346300	11464106	cn_b	loh	0
internal_1	chr10	49973153	51536884	cn_b	loh	0
internal_1	chr10	57788862	105883424	cn_b	loh	0
internal_1	chr10	125958062	128869016	cn_b	loh	0
internal_1	chr12	207691	4973359	cn_b	loh	0
internal_1	chr16	85658	34449293	cn_b	loh	0
internal_1	chr19	289657	59095126	cn_b	loh	0
internal_1	chr21	15310398	48072628	cn_b	loh	0
internal_1	chr22	17902023	49998118	cn_b	loh	0
internal_5	chr12	6062347	8675042	cn_b	loh	0
SingleLiverMet4_A21E-0096_CRUK_PC_0096_M4	chr2	187112773	242933260	cn_a	loh	0
SingleLiverMet4_A21E-0096_CRUK_PC_0096_M4	chr5	159633973	164842014	cn_a	loh	0
SingleLiverMet4_A21E-0096_CRUK_PC_0096_M4	chr1	27383717	28426001	cn_b	loh	0
SingleLiverMet4_A21E-0096_CRUK_PC_0096_M4	chr1	118471212	121350213	cn_b	loh	0
SingleLiverMet4_A21E-0096_CRUK_PC_0096_M4	chr10	14775948	38965394	cn_b	loh	0
SingleLiverMet4_A21E-0096_CRUK_PC_0096_M4	chr10	117532391	118596325	cn_b	loh	0
SingleLiverMet4_A21E-0096_CRUK_PC_0096_M4	chr15	22749649	94068803	cn_b	loh	0
SingleLiverMet4_A21E-0096_CRUK_PC_0096_M4	chr20	29499001	47082587	cn_b	loh	0
SingleLiverMet8_A21C-0096_CRUK_PC_0096_M2	chr2	13916124	38545332	cn_a	loh	0
SingleLiverMet8_A21C-0096_CRUK_PC_0096_M2	chr2	61333051	64802684	cn_a	loh	0
SingleLiverMet8_A21C-0096_CRUK_PC_0096_M2	chr5	106125352	162552835	cn_a	loh	0
SingleLiverMet8_A21C-0096_CRUK_PC_0096_M2	chr8	46883812	48091869	cn_a	gain	2
SingleLiverMet8_A21C-0096_CRUK_PC_0096_M2	chr15	98334663	102385500	cn_a	loh	0
SingleLiverMet8_A21C-0096_CRUK_PC_0096_M2	chr4	52704981	60181354	cn_b	loh	0
SingleLiverMet8_A21C-0096_CRUK_PC_0096_M2	chr4	169269932	172405998	cn_b	loh	0
SingleLiverMet8_A21C-0096_CRUK_PC_0096_M2	chr4	184993376	190790246	cn_b	loh	0
SingleLiverMet8_A21C-0096_CRUK_PC_0096_M2	chr10	48300663	49831769	cn_b	loh	0
SingleLiverMet8_A21C-0096_CRUK_PC_0096_M2	chr12	4977335	32842876	cn_b	loh	0
SingleLiverMet8_A21C-0096_CRUK_PC_0096_M2	chr14	85913512	107289436	cn_b	loh	0
SingleLiverMet8_A21C-0096_CRUK_PC_0096_M2	chr17	25800562	79903958	cn_b	loh	0
SingleLiverMet8_A21C-0096_CRUK_PC_0096_M2	chr18	129661	14141801	cn_b	loh	0
MultLiverMet13_A21H-0096_CRUK_PC_0096_M7	chr2	22975430	38545332	cn_a	loh	0
MultLiverMet13_A21H-0096_CRUK_PC_0096_M7	chr2	80303474	103516400	cn_a	loh	0
MultLiverMet13_A21H-0096_CRUK_PC_0096_M7	chr5	159633973	162552835	cn_a	loh	0
MultLiverMet13_A21H-0096_CRUK_PC_0096_M7	chr15	98334663	102385500	cn_a	loh	0
MultLiverMet13_A21H-0096_CRUK_PC_0096_M7	chr18	39588912	42301842	cn_a	loh	0
MultLiverMet13_A21H-0096_CRUK_PC_0096_M7	chr4	52704981	65878200	cn_b	loh	0
MultLiverMet13_A21H-0096_CRUK_PC_0096_M7	chr12	207691	6061947	cn_b	loh	0
MultLiverMet13_A21H-0096_CRUK_PC_0096_M7	chr12	38201068	40822096	cn_b	loh	0
MultLiverMet13_A21H-0096_CRUK_PC_0096_M7	chr12	53770941	63673968	cn_b	loh	0
MultLiverMet13_A21H-0096_CRUK_PC_0096_M7	chr13	82892302	83961878	cn_b	loss	1
MultLiverMet13_A21H-0096_CRUK_PC_0096_M7	chr19	28600895	59095126	cn_b	loh	0
SingleLiverMet2_A21G-0096_CRUK_PC_0096_M6	chr2	61333051	64802684	cn_a	loh	0
SingleLiverMet2_A21G-0096_CRUK_PC_0096_M6	chr7	138886066	141331987	cn_a	loss	1
SingleLiverMet2_A21G-0096_CRUK_PC_0096_M6	chr1	31089050	32637419	cn_b	loh	0
SingleLiverMet2_A21G-0096_CRUK_PC_0096_M6	chr5	159633973	162552835	cn_b	loh	0
SingleLiverMet2_A21G-0096_CRUK_PC_0096_M6	chr19	289657	1304868	cn_b	loh	0
