	LiverMet12_A34D-0022_CRUK_PC_0022_M3	LiverMet1_A34C-0022_CRUK_PC_0022_M2	LiverMet3_A34A-0022_CRUK_PC_0022_M1	diploid
LiverMet12_A34D-0022_CRUK_PC_0022_M3	0.0	14.0	41.0	59.0
LiverMet1_A34C-0022_CRUK_PC_0022_M2	14.0	0.0	46.0	65.0
LiverMet3_A34A-0022_CRUK_PC_0022_M1	41.0	46.0	0.0	53.0
diploid	59.0	65.0	53.0	0.0
